<?xml version="1.0" encoding="UTF-8"?>
<svg enable-background="new 0 0 384 384" version="1.1" viewBox="0 0 384 384" xml:space="preserve" xmlns="http://www.w3.org/2000/svg" xmlns:cc="http://creativecommons.org/ns#" xmlns:dc="http://purl.org/dc/elements/1.1/" xmlns:rdf="http://www.w3.org/1999/02/22-rdf-syntax-ns#"><metadata><rdf:RDF><cc:Work rdf:about=""><dc:format>image/svg+xml</dc:format><dc:type rdf:resource="http://purl.org/dc/dcmitype/StillImage"/><dc:title/></cc:Work></rdf:RDF></metadata>
<g fill="#fff">
	<g fill="#fff">
		<g fill="#fff">
			<path d="M288,192c0-37.653-21.76-70.187-53.333-85.867v171.84C266.24,262.187,288,229.653,288,192z"/>
			<polygon points="0 128 0 256 85.333 256 192 362.67 192 21.333 85.333 128"/>
			<path d="m234.67 4.907v44.053c61.653 18.347 106.67 75.413 106.67 143.04s-45.013 124.69-106.67 143.04v44.053c85.44-19.413 149.33-95.68 149.33-187.09s-63.893-167.68-149.33-187.09z"/>
		</g>
	</g>
</g>















</svg>
